<svg width="40" height="23" viewBox="0 0 40 23" fill="none" xmlns="http://www.w3.org/2000/svg">
<path d="M32.0231 12.9938L39.9759 0H27.7793L27.5517 0.953455C26.9673 3.40124 25.8705 6.71871 23.9647 8.62298C23.7291 8.85813 23.506 9.0471 23.3006 9.19848V0H12.6778V2.54145H13.6702V8.30142C12.4795 7.16955 10.9832 5.00968 10.5913 1.13287L10.4769 0H0L0.3598 1.57513C1.65343 7.23979 3.59403 11.8804 6.12819 15.3681C8.19696 18.2156 10.6609 20.3062 13.4514 21.5815C15.9435 22.7207 18.2381 23 19.8891 23C21.4076 23 22.3814 22.7635 22.4632 22.7431L23.3589 22.5175L23.4053 19.0262L27.3942 22.7764H40L32.0231 12.9938ZM21.1259 13.5153L21.035 20.4002C19.7218 20.5265 17.1202 20.5314 14.2492 19.1862C11.8514 18.0625 9.72161 16.2226 7.91895 13.7171C5.85445 10.8478 4.212 7.09369 3.02732 2.54145H8.40051C9.56353 9.83071 14.2428 11.7168 14.4512 11.797L16.0219 12.4025V2.54145H20.9492V12.415L22.1864 12.3451C22.3369 12.3365 23.7031 12.2188 25.3166 10.7245C27.1498 9.02633 28.5844 6.27645 29.5872 2.54145H35.6009L29.0684 13.2141L34.7931 20.2346H28.2737L21.1259 13.5153Z" fill="#ABABAB"/>
</svg>
